UART/uart_transimit/uart_transimit.sim/sim_1/behav/xsim/simulate.log
Time resolution is 1 ps
Time=0 clk=0 reset=1 btn_transmit=0 sw=00 TxD=x state= 0 nextstate= 0 bitcounter= 0 rightshiftreg=xxxxxxxxxx
Time=5 clk=1 reset=1 btn_transmit=0 sw=00 TxD=x state= 0 nextstate= 0 bitcounter= 0 rightshiftreg=xxxxxxxxxx
Time=10 clk=0 reset=0 btn_transmit=0 sw=00 TxD=x state= 0 nextstate= 0 bitcounter= 0 rightshiftreg=xxxxxxxxxx
Time=15 clk=1 reset=0 btn_transmit=0 sw=00 TxD=1 state= 0 nextstate= 0 bitcounter= 0 rightshiftreg=xxxxxxxxxx
Time=20 clk=0 reset=0 btn_transmit=1 sw=a5 TxD=1 state= 0 nextstate= 0 bitcounter= 0 rightshiftreg=xxxxxxxxxx
Time=25 clk=1 reset=0 btn_transmit=1 sw=a5 TxD=1 state= 0 nextstate= 0 bitcounter= 0 rightshiftreg=xxxxxxxxxx
Time=30 clk=0 reset=0 btn_transmit=0 sw=a5 TxD=1 state= 0 nextstate= 0 bitcounter= 0 rightshiftreg=xxxxxxxxxx
Time=35 clk=1 reset=0 btn_transmit=0 sw=a5 TxD=1 state= 0 nextstate= 0 bitcounter= 0 rightshiftreg=xxxxxxxxxx
Time=40 clk=0 reset=0 btn_transmit=1 sw=a5 TxD=1 state= 0 nextstate= 0 bitcounter= 0 rightshiftreg=xxxxxxxxxx
Time=45 clk=1 reset=0 btn_transmit=1 sw=a5 TxD=1 state= 0 nextstate= 1 bitcounter= 0 rightshiftreg=xxxxxxxxxx
Time=50 clk=0 reset=0 btn_transmit=1 sw=a5 TxD=1 state= 0 nextstate= 1 bitcounter= 0 rightshiftreg=xxxxxxxxxx
Time=55 clk=1 reset=0 btn_transmit=1 sw=a5 TxD=1 state= 1 nextstate= 1 bitcounter= 0 rightshiftreg=xxxxxxxxxx
Time=60 clk=0 reset=0 btn_transmit=1 sw=a5 TxD=1 state= 1 nextstate= 1 bitcounter= 0 rightshiftreg=xxxxxxxxxx
Time=65 clk=1 reset=0 btn_transmit=1 sw=a5 TxD=1 state= 1 nextstate= 1 bitcounter= 0 rightshiftreg=xxxxxxxxxx
Time=70 clk=0 reset=0 btn_transmit=1 sw=a5 TxD=1 state= 1 nextstate= 1 bitcounter= 0 rightshiftreg=xxxxxxxxxx
Time=75 clk=1 reset=0 btn_transmit=1 sw=a5 TxD=1 state= 1 nextstate= 1 bitcounter= 0 rightshiftreg=xxxxxxxxxx
Time=80 clk=0 reset=0 btn_transmit=0 sw=a5 TxD=1 state= 1 nextstate= 1 bitcounter= 0 rightshiftreg=xxxxxxxxxx
Time=85 clk=1 reset=0 btn_transmit=0 sw=a5 TxD=1 state= 1 nextstate= 2 bitcounter= 0 rightshiftreg=1101001010
Time=90 clk=0 reset=0 btn_transmit=0 sw=a5 TxD=1 state= 1 nextstate= 2 bitcounter= 0 rightshiftreg=1101001010
Time=95 clk=1 reset=0 btn_transmit=0 sw=a5 TxD=1 state= 2 nextstate= 2 bitcounter= 0 rightshiftreg=1101001010
Time=100 clk=0 reset=0 btn_transmit=0 sw=a5 TxD=1 state= 2 nextstate= 2 bitcounter= 0 rightshiftreg=1101001010
Time=105 clk=1 reset=0 btn_transmit=0 sw=a5 TxD=1 state= 2 nextstate= 2 bitcounter= 0 rightshiftreg=1101001010
Time=110 clk=0 reset=0 btn_transmit=0 sw=a5 TxD=1 state= 2 nextstate= 2 bitcounter= 0 rightshiftreg=1101001010
Time=115 clk=1 reset=0 btn_transmit=0 sw=a5 TxD=1 state= 2 nextstate= 2 bitcounter= 0 rightshiftreg=1101001010
Time=120 clk=0 reset=0 btn_transmit=0 sw=a5 TxD=1 state= 2 nextstate= 2 bitcounter= 0 rightshiftreg=1101001010
Time=125 clk=1 reset=0 btn_transmit=0 sw=a5 TxD=0 state= 2 nextstate= 2 bitcounter= 1 rightshiftreg=0110100101
Time=130 clk=0 reset=0 btn_transmit=0 sw=a5 TxD=0 state= 2 nextstate= 2 bitcounter= 1 rightshiftreg=0110100101
Time=135 clk=1 reset=0 btn_transmit=0 sw=a5 TxD=0 state= 2 nextstate= 2 bitcounter= 1 rightshiftreg=0110100101
Time=140 clk=0 reset=0 btn_transmit=0 sw=a5 TxD=0 state= 2 nextstate= 2 bitcounter= 1 rightshiftreg=0110100101
Time=145 clk=1 reset=0 btn_transmit=0 sw=a5 TxD=0 state= 2 nextstate= 2 bitcounter= 1 rightshiftreg=0110100101
Time=150 clk=0 reset=0 btn_transmit=0 sw=a5 TxD=0 state= 2 nextstate= 2 bitcounter= 1 rightshiftreg=0110100101
Time=155 clk=1 reset=0 btn_transmit=0 sw=a5 TxD=0 state= 2 nextstate= 2 bitcounter= 1 rightshiftreg=0110100101
Time=160 clk=0 reset=0 btn_transmit=0 sw=a5 TxD=0 state= 2 nextstate= 2 bitcounter= 1 rightshiftreg=0110100101
Time=165 clk=1 reset=0 btn_transmit=0 sw=a5 TxD=1 state= 2 nextstate= 2 bitcounter= 2 rightshiftreg=0011010010
Time=170 clk=0 reset=0 btn_transmit=0 sw=a5 TxD=1 state= 2 nextstate= 2 bitcounter= 2 rightshiftreg=0011010010
Time=175 clk=1 reset=0 btn_transmit=0 sw=a5 TxD=1 state= 2 nextstate= 2 bitcounter= 2 rightshiftreg=0011010010
Time=180 clk=0 reset=0 btn_transmit=0 sw=a5 TxD=1 state= 2 nextstate= 2 bitcounter= 2 rightshiftreg=0011010010
Time=185 clk=1 reset=0 btn_transmit=0 sw=a5 TxD=1 state= 2 nextstate= 2 bitcounter= 2 rightshiftreg=0011010010
Time=190 clk=0 reset=0 btn_transmit=0 sw=a5 TxD=1 state= 2 nextstate= 2 bitcounter= 2 rightshiftreg=0011010010
Time=195 clk=1 reset=0 btn_transmit=0 sw=a5 TxD=1 state= 2 nextstate= 2 bitcounter= 2 rightshiftreg=0011010010
Time=200 clk=0 reset=0 btn_transmit=0 sw=a5 TxD=1 state= 2 nextstate= 2 bitcounter= 2 rightshiftreg=0011010010
Time=205 clk=1 reset=0 btn_transmit=0 sw=a5 TxD=0 state= 2 nextstate= 2 bitcounter= 3 rightshiftreg=0001101001
Time=210 clk=0 reset=0 btn_transmit=0 sw=a5 TxD=0 state= 2 nextstate= 2 bitcounter= 3 rightshiftreg=0001101001
Time=215 clk=1 reset=0 btn_transmit=0 sw=a5 TxD=0 state= 2 nextstate= 2 bitcounter= 3 rightshiftreg=0001101001
Time=220 clk=0 reset=0 btn_transmit=0 sw=a5 TxD=0 state= 2 nextstate= 2 bitcounter= 3 rightshiftreg=0001101001
Time=225 clk=1 reset=0 btn_transmit=0 sw=a5 TxD=0 state= 2 nextstate= 2 bitcounter= 3 rightshiftreg=0001101001
Time=230 clk=0 reset=0 btn_transmit=0 sw=a5 TxD=0 state= 2 nextstate= 2 bitcounter= 3 rightshiftreg=0001101001
Time=235 clk=1 reset=0 btn_transmit=0 sw=a5 TxD=0 state= 2 nextstate= 2 bitcounter= 3 rightshiftreg=0001101001
Time=240 clk=0 reset=0 btn_transmit=0 sw=a5 TxD=0 state= 2 nextstate= 2 bitcounter= 3 rightshiftreg=0001101001
Time=245 clk=1 reset=0 btn_transmit=0 sw=a5 TxD=1 state= 2 nextstate= 2 bitcounter= 4 rightshiftreg=0000110100
Time=250 clk=0 reset=0 btn_transmit=0 sw=a5 TxD=1 state= 2 nextstate= 2 bitcounter= 4 rightshiftreg=0000110100
Time=255 clk=1 reset=0 btn_transmit=0 sw=a5 TxD=1 state= 2 nextstate= 2 bitcounter= 4 rightshiftreg=0000110100
Time=260 clk=0 reset=0 btn_transmit=0 sw=a5 TxD=1 state= 2 nextstate= 2 bitcounter= 4 rightshiftreg=0000110100
Time=265 clk=1 reset=0 btn_transmit=0 sw=a5 TxD=1 state= 2 nextstate= 2 bitcounter= 4 rightshiftreg=0000110100
Time=270 clk=0 reset=0 btn_transmit=0 sw=a5 TxD=1 state= 2 nextstate= 2 bitcounter= 4 rightshiftreg=0000110100
Time=275 clk=1 reset=0 btn_transmit=0 sw=a5 TxD=1 state= 2 nextstate= 2 bitcounter= 4 rightshiftreg=0000110100
Time=280 clk=0 reset=0 btn_transmit=0 sw=a5 TxD=1 state= 2 nextstate= 2 bitcounter= 4 rightshiftreg=0000110100
Time=285 clk=1 reset=0 btn_transmit=0 sw=a5 TxD=0 state= 2 nextstate= 2 bitcounter= 5 rightshiftreg=0000011010
Time=290 clk=0 reset=0 btn_transmit=0 sw=a5 TxD=0 state= 2 nextstate= 2 bitcounter= 5 rightshiftreg=0000011010
Time=295 clk=1 reset=0 btn_transmit=0 sw=a5 TxD=0 state= 2 nextstate= 2 bitcounter= 5 rightshiftreg=0000011010
Time=300 clk=0 reset=0 btn_transmit=0 sw=a5 TxD=0 state= 2 nextstate= 2 bitcounter= 5 rightshiftreg=0000011010
Time=305 clk=1 reset=0 btn_transmit=0 sw=a5 TxD=0 state= 2 nextstate= 2 bitcounter= 5 rightshiftreg=0000011010
Time=310 clk=0 reset=0 btn_transmit=0 sw=a5 TxD=0 state= 2 nextstate= 2 bitcounter= 5 rightshiftreg=0000011010
Time=315 clk=1 reset=0 btn_transmit=0 sw=a5 TxD=0 state= 2 nextstate= 2 bitcounter= 5 rightshiftreg=0000011010
Time=320 clk=0 reset=0 btn_transmit=0 sw=a5 TxD=0 state= 2 nextstate= 2 bitcounter= 5 rightshiftreg=0000011010
Time=325 clk=1 reset=0 btn_transmit=0 sw=a5 TxD=0 state= 2 nextstate= 2 bitcounter= 6 rightshiftreg=0000001101
Time=330 clk=0 reset=0 btn_transmit=0 sw=a5 TxD=0 state= 2 nextstate= 2 bitcounter= 6 rightshiftreg=0000001101
Time=335 clk=1 reset=0 btn_transmit=0 sw=a5 TxD=0 state= 2 nextstate= 2 bitcounter= 6 rightshiftreg=0000001101
Time=340 clk=0 reset=0 btn_transmit=0 sw=a5 TxD=0 state= 2 nextstate= 2 bitcounter= 6 rightshiftreg=0000001101
Time=345 clk=1 reset=0 btn_transmit=0 sw=a5 TxD=0 state= 2 nextstate= 2 bitcounter= 6 rightshiftreg=0000001101
Time=350 clk=0 reset=0 btn_transmit=0 sw=a5 TxD=0 state= 2 nextstate= 2 bitcounter= 6 rightshiftreg=0000001101
Time=355 clk=1 reset=0 btn_transmit=0 sw=a5 TxD=0 state= 2 nextstate= 2 bitcounter= 6 rightshiftreg=0000001101
Time=360 clk=0 reset=0 btn_transmit=0 sw=a5 TxD=0 state= 2 nextstate= 2 bitcounter= 6 rightshiftreg=0000001101
Time=365 clk=1 reset=0 btn_transmit=0 sw=a5 TxD=1 state= 2 nextstate= 2 bitcounter= 7 rightshiftreg=0000000110
Time=370 clk=0 reset=0 btn_transmit=0 sw=a5 TxD=1 state= 2 nextstate= 2 bitcounter= 7 rightshiftreg=0000000110
Time=375 clk=1 reset=0 btn_transmit=0 sw=a5 TxD=1 state= 2 nextstate= 2 bitcounter= 7 rightshiftreg=0000000110
Time=380 clk=0 reset=0 btn_transmit=0 sw=a5 TxD=1 state= 2 nextstate= 2 bitcounter= 7 rightshiftreg=0000000110
Time=385 clk=1 reset=0 btn_transmit=0 sw=a5 TxD=1 state= 2 nextstate= 2 bitcounter= 7 rightshiftreg=0000000110
Time=390 clk=0 reset=0 btn_transmit=0 sw=a5 TxD=1 state= 2 nextstate= 2 bitcounter= 7 rightshiftreg=0000000110
Time=395 clk=1 reset=0 btn_transmit=0 sw=a5 TxD=1 state= 2 nextstate= 2 bitcounter= 7 rightshiftreg=0000000110
Time=400 clk=0 reset=0 btn_transmit=0 sw=a5 TxD=1 state= 2 nextstate= 2 bitcounter= 7 rightshiftreg=0000000110
Time=405 clk=1 reset=0 btn_transmit=0 sw=a5 TxD=0 state= 2 nextstate= 2 bitcounter= 8 rightshiftreg=0000000011
Time=410 clk=0 reset=0 btn_transmit=0 sw=a5 TxD=0 state= 2 nextstate= 2 bitcounter= 8 rightshiftreg=0000000011
Time=415 clk=1 reset=0 btn_transmit=0 sw=a5 TxD=0 state= 2 nextstate= 2 bitcounter= 8 rightshiftreg=0000000011
Time=420 clk=0 reset=0 btn_transmit=0 sw=a5 TxD=0 state= 2 nextstate= 2 bitcounter= 8 rightshiftreg=0000000011
Time=425 clk=1 reset=0 btn_transmit=0 sw=a5 TxD=0 state= 2 nextstate= 2 bitcounter= 8 rightshiftreg=0000000011
Time=430 clk=0 reset=0 btn_transmit=0 sw=a5 TxD=0 state= 2 nextstate= 2 bitcounter= 8 rightshiftreg=0000000011
Time=435 clk=1 reset=0 btn_transmit=0 sw=a5 TxD=0 state= 2 nextstate= 2 bitcounter= 8 rightshiftreg=0000000011
Time=440 clk=0 reset=0 btn_transmit=0 sw=a5 TxD=0 state= 2 nextstate= 2 bitcounter= 8 rightshiftreg=0000000011
Time=445 clk=1 reset=0 btn_transmit=0 sw=a5 TxD=1 state= 2 nextstate= 2 bitcounter= 9 rightshiftreg=0000000001
Time=450 clk=0 reset=0 btn_transmit=0 sw=a5 TxD=1 state= 2 nextstate= 2 bitcounter= 9 rightshiftreg=0000000001
Time=455 clk=1 reset=0 btn_transmit=0 sw=a5 TxD=1 state= 2 nextstate= 2 bitcounter= 9 rightshiftreg=0000000001
Time=460 clk=0 reset=0 btn_transmit=0 sw=a5 TxD=1 state= 2 nextstate= 2 bitcounter= 9 rightshiftreg=0000000001
Time=465 clk=1 reset=0 btn_transmit=0 sw=a5 TxD=1 state= 2 nextstate= 2 bitcounter= 9 rightshiftreg=0000000001
Time=470 clk=0 reset=0 btn_transmit=0 sw=a5 TxD=1 state= 2 nextstate= 2 bitcounter= 9 rightshiftreg=0000000001
Time=475 clk=1 reset=0 btn_transmit=0 sw=a5 TxD=1 state= 2 nextstate= 2 bitcounter= 9 rightshiftreg=0000000001
Time=480 clk=0 reset=0 btn_transmit=0 sw=a5 TxD=1 state= 2 nextstate= 2 bitcounter= 9 rightshiftreg=0000000001
Time=485 clk=1 reset=0 btn_transmit=0 sw=a5 TxD=1 state= 2 nextstate= 3 bitcounter=10 rightshiftreg=0000000000
Time=490 clk=0 reset=0 btn_transmit=0 sw=a5 TxD=1 state= 2 nextstate= 3 bitcounter=10 rightshiftreg=0000000000
Time=495 clk=1 reset=0 btn_transmit=0 sw=a5 TxD=1 state= 3 nextstate= 0 bitcounter= 0 rightshiftreg=0000000000
Time=500 clk=0 reset=0 btn_transmit=0 sw=a5 TxD=1 state= 3 nextstate= 0 bitcounter= 0 rightshiftreg=0000000000
Time=505 clk=1 reset=0 btn_transmit=0 sw=a5 TxD=1 state= 0 nextstate= 0 bitcounter= 0 rightshiftreg=0000000000
Time=510 clk=0 reset=0 btn_transmit=0 sw=a5 TxD=1 state= 0 nextstate= 0 bitcounter= 0 rightshiftreg=0000000000
Time=515 clk=1 reset=0 btn_transmit=0 sw=a5 TxD=1 state= 0 nextstate= 0 bitcounter= 0 rightshiftreg=0000000000
Time=520 clk=0 reset=0 btn_transmit=0 sw=a5 TxD=1 state= 0 nextstate= 0 bitcounter= 0 rightshiftreg=0000000000
Time=525 clk=1 reset=0 btn_transmit=0 sw=a5 TxD=1 state= 0 nextstate= 0 bitcounter= 0 rightshiftreg=0000000000
Time=530 clk=0 reset=0 btn_transmit=0 sw=a5 TxD=1 state= 0 nextstate= 0 bitcounter= 0 rightshiftreg=0000000000
Time=535 clk=1 reset=0 btn_transmit=0 sw=a5 TxD=1 state= 0 nextstate= 0 bitcounter= 0 rightshiftreg=0000000000
Time=540 clk=0 reset=0 btn_transmit=0 sw=a5 TxD=1 state= 0 nextstate= 0 bitcounter= 0 rightshiftreg=0000000000
Time=545 clk=1 reset=0 btn_transmit=0 sw=a5 TxD=1 state= 0 nextstate= 0 bitcounter= 0 rightshiftreg=0000000000
Time=550 clk=0 reset=0 btn_transmit=0 sw=a5 TxD=1 state= 0 nextstate= 0 bitcounter= 0 rightshiftreg=0000000000
Time=555 clk=1 reset=0 btn_transmit=0 sw=a5 TxD=1 state= 0 nextstate= 0 bitcounter= 0 rightshiftreg=0000000000
Time=560 clk=0 reset=0 btn_transmit=0 sw=a5 TxD=1 state= 0 nextstate= 0 bitcounter= 0 rightshiftreg=0000000000
Time=565 clk=1 reset=0 btn_transmit=0 sw=a5 TxD=1 state= 0 nextstate= 0 bitcounter= 0 rightshiftreg=0000000000
Time=570 clk=0 reset=0 btn_transmit=0 sw=a5 TxD=1 state= 0 nextstate= 0 bitcounter= 0 rightshiftreg=0000000000
Time=575 clk=1 reset=0 btn_transmit=0 sw=a5 TxD=1 state= 0 nextstate= 0 bitcounter= 0 rightshiftreg=0000000000
Time=580 clk=0 reset=0 btn_transmit=0 sw=a5 TxD=1 state= 0 nextstate= 0 bitcounter= 0 rightshiftreg=0000000000
Time=585 clk=1 reset=0 btn_transmit=0 sw=a5 TxD=1 state= 0 nextstate= 0 bitcounter= 0 rightshiftreg=0000000000
Time=590 clk=0 reset=0 btn_transmit=1 sw=5a TxD=1 state= 0 nextstate= 0 bitcounter= 0 rightshiftreg=0000000000
Time=595 clk=1 reset=0 btn_transmit=1 sw=5a TxD=1 state= 0 nextstate= 0 bitcounter= 0 rightshiftreg=0000000000
Time=600 clk=0 reset=0 btn_transmit=0 sw=5a TxD=1 state= 0 nextstate= 0 bitcounter= 0 rightshiftreg=0000000000
Time=605 clk=1 reset=0 btn_transmit=0 sw=5a TxD=1 state= 0 nextstate= 0 bitcounter= 0 rightshiftreg=0000000000
Time=610 clk=0 reset=0 btn_transmit=1 sw=5a TxD=1 state= 0 nextstate= 1 bitcounter= 0 rightshiftreg=0000000000
Time=615 clk=1 reset=0 btn_transmit=1 sw=5a TxD=1 state= 1 nextstate= 1 bitcounter= 0 rightshiftreg=0000000000
Time=620 clk=0 reset=0 btn_transmit=1 sw=5a TxD=1 state= 1 nextstate= 1 bitcounter= 0 rightshiftreg=0000000000
Time=625 clk=1 reset=0 btn_transmit=1 sw=5a TxD=1 state= 1 nextstate= 1 bitcounter= 0 rightshiftreg=0000000000
Time=630 clk=0 reset=0 btn_transmit=1 sw=5a TxD=1 state= 1 nextstate= 1 bitcounter= 0 rightshiftreg=0000000000
Time=635 clk=1 reset=0 btn_transmit=1 sw=5a TxD=1 state= 1 nextstate= 1 bitcounter= 0 rightshiftreg=0000000000
Time=640 clk=0 reset=0 btn_transmit=1 sw=5a TxD=1 state= 1 nextstate= 1 bitcounter= 0 rightshiftreg=0000000000
Time=645 clk=1 reset=0 btn_transmit=1 sw=5a TxD=1 state= 1 nextstate= 2 bitcounter= 0 rightshiftreg=1010110100
Time=650 clk=0 reset=0 btn_transmit=0 sw=5a TxD=1 state= 1 nextstate= 2 bitcounter= 0 rightshiftreg=1010110100
Time=655 clk=1 reset=0 btn_transmit=0 sw=5a TxD=1 state= 2 nextstate= 2 bitcounter= 0 rightshiftreg=1010110100
Time=660 clk=0 reset=0 btn_transmit=0 sw=5a TxD=1 state= 2 nextstate= 2 bitcounter= 0 rightshiftreg=1010110100
Time=665 clk=1 reset=0 btn_transmit=0 sw=5a TxD=1 state= 2 nextstate= 2 bitcounter= 0 rightshiftreg=1010110100
Time=670 clk=0 reset=0 btn_transmit=0 sw=5a TxD=1 state= 2 nextstate= 2 bitcounter= 0 rightshiftreg=1010110100
Time=675 clk=1 reset=0 btn_transmit=0 sw=5a TxD=1 state= 2 nextstate= 2 bitcounter= 0 rightshiftreg=1010110100
Time=680 clk=0 reset=0 btn_transmit=0 sw=5a TxD=1 state= 2 nextstate= 2 bitcounter= 0 rightshiftreg=1010110100
Time=685 clk=1 reset=0 btn_transmit=0 sw=5a TxD=0 state= 2 nextstate= 2 bitcounter= 1 rightshiftreg=0101011010
Time=690 clk=0 reset=0 btn_transmit=0 sw=5a TxD=0 state= 2 nextstate= 2 bitcounter= 1 rightshiftreg=0101011010
Time=695 clk=1 reset=0 btn_transmit=0 sw=5a TxD=0 state= 2 nextstate= 2 bitcounter= 1 rightshiftreg=0101011010
Time=700 clk=0 reset=0 btn_transmit=0 sw=5a TxD=0 state= 2 nextstate= 2 bitcounter= 1 rightshiftreg=0101011010
Time=705 clk=1 reset=0 btn_transmit=0 sw=5a TxD=0 state= 2 nextstate= 2 bitcounter= 1 rightshiftreg=0101011010
Time=710 clk=0 reset=0 btn_transmit=0 sw=5a TxD=0 state= 2 nextstate= 2 bitcounter= 1 rightshiftreg=0101011010
Time=715 clk=1 reset=0 btn_transmit=0 sw=5a TxD=0 state= 2 nextstate= 2 bitcounter= 1 rightshiftreg=0101011010
Time=720 clk=0 reset=0 btn_transmit=0 sw=5a TxD=0 state= 2 nextstate= 2 bitcounter= 1 rightshiftreg=0101011010
Time=725 clk=1 reset=0 btn_transmit=0 sw=5a TxD=0 state= 2 nextstate= 2 bitcounter= 2 rightshiftreg=0010101101
Time=730 clk=0 reset=0 btn_transmit=0 sw=5a TxD=0 state= 2 nextstate= 2 bitcounter= 2 rightshiftreg=0010101101
Time=735 clk=1 reset=0 btn_transmit=0 sw=5a TxD=0 state= 2 nextstate= 2 bitcounter= 2 rightshiftreg=0010101101
Time=740 clk=0 reset=0 btn_transmit=0 sw=5a TxD=0 state= 2 nextstate= 2 bitcounter= 2 rightshiftreg=0010101101
Time=745 clk=1 reset=0 btn_transmit=0 sw=5a TxD=0 state= 2 nextstate= 2 bitcounter= 2 rightshiftreg=0010101101
Time=750 clk=0 reset=0 btn_transmit=0 sw=5a TxD=0 state= 2 nextstate= 2 bitcounter= 2 rightshiftreg=0010101101
Time=755 clk=1 reset=0 btn_transmit=0 sw=5a TxD=0 state= 2 nextstate= 2 bitcounter= 2 rightshiftreg=0010101101
Time=760 clk=0 reset=0 btn_transmit=0 sw=5a TxD=0 state= 2 nextstate= 2 bitcounter= 2 rightshiftreg=0010101101
Time=765 clk=1 reset=0 btn_transmit=0 sw=5a TxD=1 state= 2 nextstate= 2 bitcounter= 3 rightshiftreg=0001010110
Time=770 clk=0 reset=0 btn_transmit=0 sw=5a TxD=1 state= 2 nextstate= 2 bitcounter= 3 rightshiftreg=0001010110
Time=775 clk=1 reset=0 btn_transmit=0 sw=5a TxD=1 state= 2 nextstate= 2 bitcounter= 3 rightshiftreg=0001010110
Time=780 clk=0 reset=0 btn_transmit=0 sw=5a TxD=1 state= 2 nextstate= 2 bitcounter= 3 rightshiftreg=0001010110
Time=785 clk=1 reset=0 btn_transmit=0 sw=5a TxD=1 state= 2 nextstate= 2 bitcounter= 3 rightshiftreg=0001010110
Time=790 clk=0 reset=0 btn_transmit=0 sw=5a TxD=1 state= 2 nextstate= 2 bitcounter= 3 rightshiftreg=0001010110
Time=795 clk=1 reset=0 btn_transmit=0 sw=5a TxD=1 state= 2 nextstate= 2 bitcounter= 3 rightshiftreg=0001010110
Time=800 clk=0 reset=0 btn_transmit=0 sw=5a TxD=1 state= 2 nextstate= 2 bitcounter= 3 rightshiftreg=0001010110
Time=805 clk=1 reset=0 btn_transmit=0 sw=5a TxD=0 state= 2 nextstate= 2 bitcounter= 4 rightshiftreg=0000101011
Time=810 clk=0 reset=0 btn_transmit=0 sw=5a TxD=0 state= 2 nextstate= 2 bitcounter= 4 rightshiftreg=0000101011
Time=815 clk=1 reset=0 btn_transmit=0 sw=5a TxD=0 state= 2 nextstate= 2 bitcounter= 4 rightshiftreg=0000101011
Time=820 clk=0 reset=0 btn_transmit=0 sw=5a TxD=0 state= 2 nextstate= 2 bitcounter= 4 rightshiftreg=0000101011
Time=825 clk=1 reset=0 btn_transmit=0 sw=5a TxD=0 state= 2 nextstate= 2 bitcounter= 4 rightshiftreg=0000101011
Time=830 clk=0 reset=0 btn_transmit=0 sw=5a TxD=0 state= 2 nextstate= 2 bitcounter= 4 rightshiftreg=0000101011
Time=835 clk=1 reset=0 btn_transmit=0 sw=5a TxD=0 state= 2 nextstate= 2 bitcounter= 4 rightshiftreg=0000101011
Time=840 clk=0 reset=0 btn_transmit=0 sw=5a TxD=0 state= 2 nextstate= 2 bitcounter= 4 rightshiftreg=0000101011
Time=845 clk=1 reset=0 btn_transmit=0 sw=5a TxD=1 state= 2 nextstate= 2 bitcounter= 5 rightshiftreg=0000010101
Time=850 clk=0 reset=0 btn_transmit=0 sw=5a TxD=1 state= 2 nextstate= 2 bitcounter= 5 rightshiftreg=0000010101
Time=855 clk=1 reset=0 btn_transmit=0 sw=5a TxD=1 state= 2 nextstate= 2 bitcounter= 5 rightshiftreg=0000010101
Time=860 clk=0 reset=0 btn_transmit=0 sw=5a TxD=1 state= 2 nextstate= 2 bitcounter= 5 rightshiftreg=0000010101
Time=865 clk=1 reset=0 btn_transmit=0 sw=5a TxD=1 state= 2 nextstate= 2 bitcounter= 5 rightshiftreg=0000010101
Time=870 clk=0 reset=0 btn_transmit=0 sw=5a TxD=1 state= 2 nextstate= 2 bitcounter= 5 rightshiftreg=0000010101
Time=875 clk=1 reset=0 btn_transmit=0 sw=5a TxD=1 state= 2 nextstate= 2 bitcounter= 5 rightshiftreg=0000010101
Time=880 clk=0 reset=0 btn_transmit=0 sw=5a TxD=1 state= 2 nextstate= 2 bitcounter= 5 rightshiftreg=0000010101
Time=885 clk=1 reset=0 btn_transmit=0 sw=5a TxD=1 state= 2 nextstate= 2 bitcounter= 6 rightshiftreg=0000001010
Time=890 clk=0 reset=0 btn_transmit=0 sw=5a TxD=1 state= 2 nextstate= 2 bitcounter= 6 rightshiftreg=0000001010
Time=895 clk=1 reset=0 btn_transmit=0 sw=5a TxD=1 state= 2 nextstate= 2 bitcounter= 6 rightshiftreg=0000001010
Time=900 clk=0 reset=0 btn_transmit=0 sw=5a TxD=1 state= 2 nextstate= 2 bitcounter= 6 rightshiftreg=0000001010
Time=905 clk=1 reset=0 btn_transmit=0 sw=5a TxD=1 state= 2 nextstate= 2 bitcounter= 6 rightshiftreg=0000001010
Time=910 clk=0 reset=0 btn_transmit=0 sw=5a TxD=1 state= 2 nextstate= 2 bitcounter= 6 rightshiftreg=0000001010
Time=915 clk=1 reset=0 btn_transmit=0 sw=5a TxD=1 state= 2 nextstate= 2 bitcounter= 6 rightshiftreg=0000001010
Time=920 clk=0 reset=0 btn_transmit=0 sw=5a TxD=1 state= 2 nextstate= 2 bitcounter= 6 rightshiftreg=0000001010
Time=925 clk=1 reset=0 btn_transmit=0 sw=5a TxD=0 state= 2 nextstate= 2 bitcounter= 7 rightshiftreg=0000000101
Time=930 clk=0 reset=0 btn_transmit=0 sw=5a TxD=0 state= 2 nextstate= 2 bitcounter= 7 rightshiftreg=0000000101
Time=935 clk=1 reset=0 btn_transmit=0 sw=5a TxD=0 state= 2 nextstate= 2 bitcounter= 7 rightshiftreg=0000000101
Time=940 clk=0 reset=0 btn_transmit=0 sw=5a TxD=0 state= 2 nextstate= 2 bitcounter= 7 rightshiftreg=0000000101
Time=945 clk=1 reset=0 btn_transmit=0 sw=5a TxD=0 state= 2 nextstate= 2 bitcounter= 7 rightshiftreg=0000000101
Time=950 clk=0 reset=0 btn_transmit=0 sw=5a TxD=0 state= 2 nextstate= 2 bitcounter= 7 rightshiftreg=0000000101
Time=955 clk=1 reset=0 btn_transmit=0 sw=5a TxD=0 state= 2 nextstate= 2 bitcounter= 7 rightshiftreg=0000000101
Time=960 clk=0 reset=0 btn_transmit=0 sw=5a TxD=0 state= 2 nextstate= 2 bitcounter= 7 rightshiftreg=0000000101
Time=965 clk=1 reset=0 btn_transmit=0 sw=5a TxD=1 state= 2 nextstate= 2 bitcounter= 8 rightshiftreg=0000000010
Time=970 clk=0 reset=0 btn_transmit=0 sw=5a TxD=1 state= 2 nextstate= 2 bitcounter= 8 rightshiftreg=0000000010
Time=975 clk=1 reset=0 btn_transmit=0 sw=5a TxD=1 state= 2 nextstate= 2 bitcounter= 8 rightshiftreg=0000000010
Time=980 clk=0 reset=0 btn_transmit=0 sw=5a TxD=1 state= 2 nextstate= 2 bitcounter= 8 rightshiftreg=0000000010
Time=985 clk=1 reset=0 btn_transmit=0 sw=5a TxD=1 state= 2 nextstate= 2 bitcounter= 8 rightshiftreg=0000000010
Time=990 clk=0 reset=0 btn_transmit=0 sw=5a TxD=1 state= 2 nextstate= 2 bitcounter= 8 rightshiftreg=0000000010
Time=995 clk=1 reset=0 btn_transmit=0 sw=5a TxD=1 state= 2 nextstate= 2 bitcounter= 8 rightshiftreg=0000000010
Time=1000 clk=0 reset=0 btn_transmit=0 sw=5a TxD=1 state= 2 nextstate= 2 bitcounter= 8 rightshiftreg=0000000010
